ply
format ascii 1.0
comment Created by Blender 2.79 (sub 0) - www.blender.org, source file: ''
element vertex 32
property float x
property float y
property float z
property float nx
property float ny
property float nz
property uchar red
property uchar green
property uchar blue
element face 12
property list uchar uint vertex_indices
end_header
-0.011903 -0.036680 0.008289 0.003298 0.999984 -0.004487 244 255 1
0.012660 -0.036761 0.008410 0.003298 0.999984 -0.004487 244 255 0
-0.011831 -0.036747 -0.006449 0.003298 0.999984 -0.004487 244 255 0
-0.011831 -0.036747 -0.006449 0.003278 0.999985 -0.004455 244 255 0
0.012660 -0.036761 0.008410 0.003278 0.999985 -0.004455 244 255 0
0.012732 -0.036827 -0.006328 0.003278 0.999985 -0.004455 244 255 0
-0.011661 0.037009 0.007960 0.999983 -0.003262 0.004923 244 255 0
-0.011903 -0.036680 0.008289 0.999983 -0.003262 0.004923 244 255 0
-0.011589 0.036943 -0.006778 0.999983 -0.003262 0.004923 244 255 0
-0.011589 0.036943 -0.006778 0.999982 -0.003255 0.004957 244 255 0
-0.011903 -0.036680 0.008289 0.999982 -0.003255 0.004957 244 255 0
-0.011831 -0.036747 -0.006449 0.999982 -0.003255 0.004957 244 255 0
0.012902 0.036929 0.008081 -0.003278 -0.999985 0.004455 244 255 0
-0.011661 0.037009 0.007960 -0.003278 -0.999985 0.004455 244 255 0
0.012974 0.036863 -0.006657 -0.003278 -0.999985 0.004455 244 255 0
0.012974 0.036863 -0.006657 -0.003277 -0.999985 0.004455 244 255 0
-0.011661 0.037009 0.007960 -0.003277 -0.999985 0.004455 244 255 0
-0.011589 0.036943 -0.006778 -0.003277 -0.999985 0.004455 244 255 0
0.012660 -0.036761 0.008410 -0.999982 0.003262 -0.004956 244 255 0
0.012902 0.036929 0.008081 -0.999982 0.003262 -0.004956 244 255 0
0.012732 -0.036827 -0.006328 -0.999982 0.003262 -0.004956 244 255 0
0.012974 0.036863 -0.006657 -0.999982 0.003262 -0.004956 244 255 0
-0.011661 0.037009 0.007960 0.004926 -0.004477 -0.999978 244 255 0
0.012902 0.036929 0.008081 0.004926 -0.004477 -0.999978 244 255 0
-0.011903 -0.036680 0.008289 0.004926 -0.004477 -0.999978 244 255 0
-0.011903 -0.036680 0.008289 0.004946 -0.004484 -0.999978 244 255 0
0.012902 0.036929 0.008081 0.004946 -0.004484 -0.999978 244 255 0
0.012660 -0.036761 0.008410 0.004946 -0.004484 -0.999978 245 255 29
0.012974 0.036863 -0.006657 -0.004926 0.004484 0.999978 244 255 0
-0.011589 0.036943 -0.006778 -0.004926 0.004484 0.999978 244 255 0
0.012732 -0.036827 -0.006328 -0.004926 0.004484 0.999978 244 255 0
-0.011831 -0.036747 -0.006449 -0.004926 0.004484 0.999978 244 255 0
3 0 1 2
3 3 4 5
3 6 7 8
3 9 10 11
3 12 13 14
3 15 16 17
3 18 19 20
3 20 19 21
3 22 23 24
3 25 26 27
3 28 29 30
3 30 29 31
